{
  "configVersion": 1,
  "index": "/index.html",
  "assetGroups": [
    {
      "name": "app",
      "installMode": "prefetch",
      "updateMode": "prefetch",
      "urls": [
        "/1.518d6dfb9320a8d96d0f.js",
        "/100.49a2b986a2b6c0745cb3.js",
        "/101.cf3d406c5f806dc03b14.js",
        "/102.3d10f15d667ec37e574e.js",
        "/103.40f91fb9b7c2ee5f81ca.js",
        "/104.4e4bd0d85f2b7302e8e0.js",
        "/105.f932809b2907f7757232.js",
        "/106.29399e7c67d3dcd83e49.js",
        "/107.653d2a76a0134763a51c.js",
        "/108.b05cd7b4365c95f26096.js",
        "/109.e1294fd9fcf510583e3e.js",
        "/11.ef09f25c05c097baad74.js",
        "/110.6398bfa7f8e08aa807e1.js",
        "/111.f96e6cb326279108efc3.js",
        "/112.383952f5e52921657fdd.js",
        "/113.596af3ba92d464d5ef6f.js",
        "/114.8f0d0cf9f2644ebfb894.js",
        "/115.5de79170a464cb12386f.js",
        "/116.f381ac72ebc3d92cab48.js",
        "/117.81d7f8eb2c87d170c4d5.js",
        "/118.2223a38aa05b8fe5ed6c.js",
        "/119.f58a4d427048e16190e4.js",
        "/12.0483c79fb99e6650285e.js",
        "/120.035a80650f9ea800b32d.js",
        "/121.fac1fbf400fb857af560.js",
        "/122.934cc7ab382a37ba817f.js",
        "/123.81362ce3e5520abe7fc6.js",
        "/124.10d4b477fe644ab64eaf.js",
        "/125.966294cbedf313d0daca.js",
        "/126.b1247e453025917b9cd8.js",
        "/127.0ba09ae0345edd596d07.js",
        "/128.fa25be62873d1c84f798.js",
        "/129.f6c29f86ab99ee346a19.js",
        "/13.ac7ba6439ecde0f808b4.js",
        "/130.e75807693791121cf01f.js",
        "/131.8eb7e10d47278c0f54c0.js",
        "/132.40b086228668e58da340.js",
        "/133.8197f4d0debb42cb9ad7.js",
        "/134.8982527738190add2b5c.js",
        "/135.82441c8f1ff6a4243655.js",
        "/136.ee0dfd5030db63b37881.js",
        "/137.2514adc5763e89d25aa5.js",
        "/138.94be56ea7531bef2f7d8.js",
        "/139.07e6c498eac571656cc9.js",
        "/140.ae8d3d81cca00bb9a6d9.js",
        "/141.584cd2e3224bb8fd17e1.js",
        "/142.cdee6e9a9400748303df.js",
        "/143.04d91be71035813789f6.js",
        "/144.f1af9ae575c3c18799eb.js",
        "/145.ca21ff3dde7d264b011a.js",
        "/146.708b3511d042e65e579a.js",
        "/147.d8708943502248c0ebe7.js",
        "/148.2f21e95485ad83c52c85.js",
        "/149.ff527c831970d631014b.js",
        "/150.acd7e7b8fe5ac6368351.js",
        "/151.5db6b9a64efc8b3e91c9.js",
        "/152.ec0a3d99fec3501d1523.js",
        "/153.e61b827e0fe3a1d4b419.js",
        "/154.0dec31421b01f24b42f4.js",
        "/155.f67b936e6b3086825a21.js",
        "/156.5c81c3ce202cc98aa971.js",
        "/157.f307a096e222e3ae2927.js",
        "/158.f9ee0c59710b2e15c300.js",
        "/159.24cd508d062357c0f9be.js",
        "/160.662767227c5d9be5985d.js",
        "/161.5ad257bc82c1dd558913.js",
        "/162.b12f9310e198ab0e07c1.js",
        "/163.e985e0dd59b662f4d28f.js",
        "/164.325c3439b23ca4418376.js",
        "/165.32ff3a6adcb0d9c41a09.js",
        "/166.6674de01b0ba415145aa.js",
        "/167.8737ea6cccb94b64c67f.js",
        "/168.07be29a754b43247b424.js",
        "/169.9c350f36044e3cb2775d.js",
        "/17.f961f1f8fa35b48b3e3e.js",
        "/170.fedd7130136073535c02.js",
        "/171.0f9d886bc74eb86e8dab.js",
        "/172.b4166ef41c615de4d657.js",
        "/173.2bc9c7ac0d7ed7f4e354.js",
        "/174.5a767883ffaa2b8d87a8.js",
        "/175.177335264f0845878334.js",
        "/176.0ef460c801c0d52af56b.js",
        "/177.376cf3e0c2b3b2b071b6.js",
        "/178.f28da5aa516ef61c1c61.js",
        "/179.03d89c5956f4e6bebb6d.js",
        "/18.580514306be4dc8454f0.js",
        "/180.bcef293a8c8482501033.js",
        "/19.b5427c5e0e26d481207f.js",
        "/2.dd742325e091ff8f6ee6.js",
        "/20.169eac890c17a07f4cf8.js",
        "/21.f43513dbe5d3b813ae3a.js",
        "/22.61bd2dc14c0b0318f460.js",
        "/23.5a32678711067613a2ba.js",
        "/24.5050ae1bf5a03668243a.js",
        "/25.a01d9c66da0380e0bc3c.js",
        "/26.e44d4e8c9c5ec58a5fb1.js",
        "/27.74c473308b094053c2b3.js",
        "/28.ecf43151d9cbc5d95a60.js",
        "/29.ec3d24e46111bebdfb6e.js",
        "/3.42adaab5359074b4df35.js",
        "/30.5bf6f3c00eb9eb9c88a7.js",
        "/31.2e8bde73b8b8db94e138.js",
        "/32.0e587d23dffdaac6bfe2.js",
        "/33.30db17c2df66b0046dbf.js",
        "/34.7803039d7cf4deca682e.js",
        "/35.2b99ef9d6f1b143605d8.js",
        "/36.ca306c91e43f4763e6c2.js",
        "/37.af5049a03e3ce2a8b21d.js",
        "/38.a484fa0a91907b647b6b.js",
        "/39.d5277fe195753e0b1b77.js",
        "/4.2a09798eee7e50cf5445.js",
        "/40.ad55de8c3cc0e627b6a4.js",
        "/41.4102a0878530782b95b0.js",
        "/42.f5a4c6de08e204e9c0fc.js",
        "/43.28c63f5de443a5c0adff.js",
        "/44.603f41ee257607accb9b.js",
        "/45.9094810e23cc5af74f04.js",
        "/46.841e2a9e4646f8679d85.js",
        "/47.c6ea2fa59448592039f8.js",
        "/48.000b3ce2f255d1650079.js",
        "/49.c4fc25ed44663ab1bc6c.js",
        "/5.0126a8a7f8364483b6dd.js",
        "/50.566b12e0668ab903f591.js",
        "/51.e19655c9eeb917871c99.js",
        "/52.75c66dcd2d53a4e76bf3.js",
        "/53.47a808439a95730f3e0d.js",
        "/54.891c59c8a8f799c8c2f3.js",
        "/55.a0ed7d577c79bc6d8d83.js",
        "/56.0595e07eda881f661b51.js",
        "/57.f5156f67b714d1c58994.js",
        "/58.915fc5c60db355aa7066.js",
        "/59.9ddc1d33a4fe2629c429.js",
        "/6.30ddd9200a5b4227997d.js",
        "/60.b4815b8f2b026748fd74.js",
        "/61.611f9869b519626a270c.js",
        "/62.fdf0f7285ecdfb02649c.js",
        "/63.84ac7a5147321955bc17.js",
        "/64.5ab8fdeb83c1161ad1ba.js",
        "/65.07d3d04eda9f05f0c6dd.js",
        "/66.d27fc2de8777d1280683.js",
        "/67.a0c3d686fc5c97b300b4.js",
        "/68.a70122bd1b7b0f5cb07b.js",
        "/69.bcbcd7fa967e33567f05.js",
        "/7.d0f53fbb3b26e121745c.js",
        "/70.cb66f23bb1e16511abda.js",
        "/71.a27f6942e5a774b43ed6.js",
        "/72.1323c0e6aa26062ab889.js",
        "/73.9f6e4555d06ad0ae1136.js",
        "/74.b7660060069e03eb977f.js",
        "/75.a612dd6f9774d74bc53e.js",
        "/76.419e4c27338738d29f99.js",
        "/77.2ce710afb436cf0e7e37.js",
        "/78.4e993ffcf3f453daf63d.js",
        "/79.45f9a5c45a15008ffd3f.js",
        "/8.164458d0cab41931e2a0.js",
        "/80.c510e814ac56884a1f78.js",
        "/81.71311117a978c198e726.js",
        "/82.21f6020715c150791618.js",
        "/83.8d513615ecac8a03f560.js",
        "/84.c6e80036581764852189.js",
        "/85.6b7b0dfbae808e25ac18.js",
        "/86.3c2eb2eccf47727d022c.js",
        "/87.ad245c52f5c0d88f8905.js",
        "/88.84dbbbc8ab72ddbde140.js",
        "/89.c136103b956b5bc0adbc.js",
        "/9.d92593cf6703e8de309e.js",
        "/90.9a59646ff33bf2741639.js",
        "/91.ddf74243149e7f6d8637.js",
        "/92.caaa32ace6e5c4ba28d3.js",
        "/93.1f5a283a3b47d70a7076.js",
        "/94.00534d31e68b462e8d26.js",
        "/95.67e4d288f14b7a75fd00.js",
        "/96.1106d2251b86af53bce7.js",
        "/97.6f0887be8cfada0a7dfb.js",
        "/98.4d326e58032aee895d69.js",
        "/99.671808263dcca160068c.js",
        "/common.690f890cf5828d03a68a.js",
        "/cordova.935a9f4e1f7afeca168d.js",
        "/cordova.js",
        "/cordova_plugins.js",
        "/index.html",
        "/main.46f0106f86089cb77e53.js",
        "/ngsw-worker.js",
        "/polyfills.358ac927f0001a849e41.js",
        "/runtime.e188014ade0c880bac8a.js",
        "/safety-worker.js",
        "/styles.e630339482df0fdc5b96.css",
        "/worker-basic.min.js"
      ],
      "patterns": []
    },
    {
      "name": "assets",
      "installMode": "lazy",
      "updateMode": "prefetch",
      "urls": [
        "/assets/icon/favicon.png",
        "/assets/icons/icon-128x128.png",
        "/assets/icons/icon-144x144.png",
        "/assets/icons/icon-152x152.png",
        "/assets/icons/icon-192x192.png",
        "/assets/icons/icon-384x384.png",
        "/assets/icons/icon-512x512.png",
        "/assets/icons/icon-72x72.png",
        "/assets/icons/icon-96x96.png",
        "/assets/shapes.svg"
      ],
      "patterns": []
    }
  ],
  "dataGroups": [],
  "hashTable": {
    "/1.518d6dfb9320a8d96d0f.js": "27b5d27b2af1784bdb7395d221b047bc5ce75e4f",
    "/100.49a2b986a2b6c0745cb3.js": "d90e917f3e28798deeb0ea633f7f2a5260f0fb5d",
    "/101.cf3d406c5f806dc03b14.js": "fbe2f315883b7994d6320cc6c3cbcaca6148bda7",
    "/102.3d10f15d667ec37e574e.js": "dedebf1b484dc6c1bb1b4b208b0ce2a980c47c29",
    "/103.40f91fb9b7c2ee5f81ca.js": "7ef94cb754295d26f577cf67b63860677c183db7",
    "/104.4e4bd0d85f2b7302e8e0.js": "03d5ca9ca6b896cc7c4c0cb953c3b86a4cd242a2",
    "/105.f932809b2907f7757232.js": "983201d736f085690e56d024552643d770767556",
    "/106.29399e7c67d3dcd83e49.js": "b6da555180fe916c273c6e7315a984cc5a834138",
    "/107.653d2a76a0134763a51c.js": "ce224c01ddd7aa677a49d0964939de1504c4571d",
    "/108.b05cd7b4365c95f26096.js": "0e91fb7f23f0aed294e23e2ce5d4bd70772b152d",
    "/109.e1294fd9fcf510583e3e.js": "544dd68d98dec5350860d7ce756473a974ae4465",
    "/11.ef09f25c05c097baad74.js": "610a97fa84259df5500c3cb9174fc9b2d0150b8b",
    "/110.6398bfa7f8e08aa807e1.js": "e9c6c32c01cdce876c81f2907bc7ac287b857dbf",
    "/111.f96e6cb326279108efc3.js": "75a4611edb5030fb8fa36b42b52bf628e9488726",
    "/112.383952f5e52921657fdd.js": "b2cd8c871c21b16dfbadfe0f4de3438c42896a60",
    "/113.596af3ba92d464d5ef6f.js": "b9cfa8cebaa34d0b85dfea5037de7a1dec75c72b",
    "/114.8f0d0cf9f2644ebfb894.js": "f6e4ed2672a982ce182020a66e9d668030b15a9f",
    "/115.5de79170a464cb12386f.js": "06f8155f02c0519a3882cbf3b7d400442d01fd2d",
    "/116.f381ac72ebc3d92cab48.js": "91383232e9cd1fb3bb705238f4cadd86a1592d3a",
    "/117.81d7f8eb2c87d170c4d5.js": "bd07a2dc41a89892f34f583d5f7d9ea0de278a72",
    "/118.2223a38aa05b8fe5ed6c.js": "3cfe77bfe59161fda2e6f11629c9b197c9dd5a7a",
    "/119.f58a4d427048e16190e4.js": "22ed9cb5155a21d9c10dad708171d7494e89d6c7",
    "/12.0483c79fb99e6650285e.js": "b421585433293fbb602f53a3fd156ed5e3e3242b",
    "/120.035a80650f9ea800b32d.js": "302647e12d7544adae694e6eef1bdd3ad367538a",
    "/121.fac1fbf400fb857af560.js": "308d7b520ca6d49ee958fecaacdfed261854a443",
    "/122.934cc7ab382a37ba817f.js": "5d876ef69056cd83249814704b3da9b2f0d80c95",
    "/123.81362ce3e5520abe7fc6.js": "94a53c489f4187c2b7e90a65aa52895c2292fee1",
    "/124.10d4b477fe644ab64eaf.js": "6a7262fe55ec573e072772a60b1443866f4a3b5b",
    "/125.966294cbedf313d0daca.js": "cba4082b962f06d11f8c57c4bb65cb77006c7d2c",
    "/126.b1247e453025917b9cd8.js": "6e1a7468e366a0192660be22ff10d1259fc93b3f",
    "/127.0ba09ae0345edd596d07.js": "80fb72c6e69291c7581c509e7fbcfd408607edb9",
    "/128.fa25be62873d1c84f798.js": "619207975cdfe816ac6318c14ac7137251175a3c",
    "/129.f6c29f86ab99ee346a19.js": "8713ee7aae69add123c49ae1a54309da91205c9f",
    "/13.ac7ba6439ecde0f808b4.js": "c18d269a9a3327ab15efadcef9dfbcf1e7ab998f",
    "/130.e75807693791121cf01f.js": "537538f8992c5fe742a87f5d813e763e69d323f7",
    "/131.8eb7e10d47278c0f54c0.js": "d4574e22811a929d0bf69fd66d9eba944be3c762",
    "/132.40b086228668e58da340.js": "5c91c0e09476899357788775293114b68aa6d31c",
    "/133.8197f4d0debb42cb9ad7.js": "b4e9dc73c2dc51460b04c86968ba7d95ae0f3e49",
    "/134.8982527738190add2b5c.js": "8fd118a3dc59227b92c070bf134f7f8d5c7aae0f",
    "/135.82441c8f1ff6a4243655.js": "bf61e8f5db5137b18af6ad19eb010a5b79929e17",
    "/136.ee0dfd5030db63b37881.js": "c4a101f87ef9847b88d590a54875b19570e3a61d",
    "/137.2514adc5763e89d25aa5.js": "40295f37861b7b42157f096f0c8a028560a89823",
    "/138.94be56ea7531bef2f7d8.js": "af85b0a3fe6a1a2bfe2d0ef8aac9367cb68ca451",
    "/139.07e6c498eac571656cc9.js": "d19093ba5410f9c6adad41525c307fe462b5029f",
    "/140.ae8d3d81cca00bb9a6d9.js": "036ae4ab7c92ab067c7c4fc42dd614246572faaa",
    "/141.584cd2e3224bb8fd17e1.js": "4a04fa82525d6cfeb06f73a753c6ed6ff8aaf49a",
    "/142.cdee6e9a9400748303df.js": "5c8f900c059aff0f3143ffcb8ccde35d50c380a2",
    "/143.04d91be71035813789f6.js": "eb7109eb8eeb113d12ae54445455435e4588e058",
    "/144.f1af9ae575c3c18799eb.js": "9015093b09ce383179be711a72212233b405e64f",
    "/145.ca21ff3dde7d264b011a.js": "0e7e3025d6c8edbac4756c70566d6ee009a0c008",
    "/146.708b3511d042e65e579a.js": "dd9504ede4bfffd3b459e021df2e17fe5bb1484d",
    "/147.d8708943502248c0ebe7.js": "5dcfd5efa579e8f524e2a9dc96265e771347c440",
    "/148.2f21e95485ad83c52c85.js": "6f0361fd3ab4c1c0628277148dd41d603f423dac",
    "/149.ff527c831970d631014b.js": "318d16843c3ad0af0870cd1adcda755bfc029673",
    "/150.acd7e7b8fe5ac6368351.js": "a2019f0ebaf70611f5beb9d94b70d88bc61182bd",
    "/151.5db6b9a64efc8b3e91c9.js": "42b02fe344bb177eb94a2206fb9ba971ea85dd10",
    "/152.ec0a3d99fec3501d1523.js": "6b49c2a638a4b7ac4c0df6132c9a10d45ee832b4",
    "/153.e61b827e0fe3a1d4b419.js": "d935c10fc525de6218c66202296a60f36c3e8f4d",
    "/154.0dec31421b01f24b42f4.js": "9ca1face7c481fd90fb8c94a3887751cb675d1be",
    "/155.f67b936e6b3086825a21.js": "033f1e7bfaaf180a61533c2e51b8314c3f87aaa9",
    "/156.5c81c3ce202cc98aa971.js": "4aab6cd8ed1dba9c767f753b6828406ece3e7922",
    "/157.f307a096e222e3ae2927.js": "76640326807323e52c24a14a91beb60aa766bc3d",
    "/158.f9ee0c59710b2e15c300.js": "74e5f21c0c2c6f9aa024ddfcd5d66ea4cde5df11",
    "/159.24cd508d062357c0f9be.js": "9fb934574f10dee1d675d399659e1dd7dd04a8e3",
    "/160.662767227c5d9be5985d.js": "251e6d45cf36d3c9fbeb202ca8282451915eac5d",
    "/161.5ad257bc82c1dd558913.js": "71f60aa90454f72e8c9eef1e3a1fcfa16c07c16a",
    "/162.b12f9310e198ab0e07c1.js": "5f6683c75a21d844349d707edefb74699807c9ff",
    "/163.e985e0dd59b662f4d28f.js": "1b55b0933f46d1014260441e03a10a9283c1a41e",
    "/164.325c3439b23ca4418376.js": "268a57a6044d7d2d9a9d9cf7638dea298b869ad7",
    "/165.32ff3a6adcb0d9c41a09.js": "330e683ea5ac87abcf71918c25b988dc813ee18c",
    "/166.6674de01b0ba415145aa.js": "3b3b0b4e45a468c70d3221ce8cf26cce7dd81ade",
    "/167.8737ea6cccb94b64c67f.js": "52ac0c6b62ce8426a81c22213dc2c1ef6f1bd608",
    "/168.07be29a754b43247b424.js": "f0fca7f4240136d034d6d2006f58a8187b6d433b",
    "/169.9c350f36044e3cb2775d.js": "f64ad66745608fd283a5fd0a7b70969d03fd8e6a",
    "/17.f961f1f8fa35b48b3e3e.js": "08bae4f614f235c7abef065ac05bfd54df8655d3",
    "/170.fedd7130136073535c02.js": "ddc6676873eb9686fc5a44a03cbcf86ad301a74f",
    "/171.0f9d886bc74eb86e8dab.js": "0e021c17cbe0bd0012ac30d6fd3c827be69346b0",
    "/172.b4166ef41c615de4d657.js": "8de5d0f63f6ec385bf869234a1172ac78c141853",
    "/173.2bc9c7ac0d7ed7f4e354.js": "5ed737dd3899418d7d467eb061e3c36c6eba7d77",
    "/174.5a767883ffaa2b8d87a8.js": "707c89394fe953aef0547dc3d35451100a611d8f",
    "/175.177335264f0845878334.js": "a04a17b4c6b4a7697e7abdff8502a2464139ec8b",
    "/176.0ef460c801c0d52af56b.js": "c04920558044a99636b9ec866af54123d2594848",
    "/177.376cf3e0c2b3b2b071b6.js": "2ae90c55453c000813382f064f630f31b8e3f7f8",
    "/178.f28da5aa516ef61c1c61.js": "edb189574830d1e4b2d0418e0012881e17af9896",
    "/179.03d89c5956f4e6bebb6d.js": "8803a4c53f3096bb857d5ef595852149eda30787",
    "/18.580514306be4dc8454f0.js": "d28c8264cff716de9fb694ded89117eed899dd43",
    "/180.bcef293a8c8482501033.js": "8ef21c1eb4f4142e32a14a35ec3c3fabbc7b4c57",
    "/19.b5427c5e0e26d481207f.js": "252dbe9b2093269629b2fae7c1d7676712f2c5d7",
    "/2.dd742325e091ff8f6ee6.js": "ffc6e96c4412f96a610959923f664d145e3ed99a",
    "/20.169eac890c17a07f4cf8.js": "252854eda77dcbeb7a53d04f411d8ca7806bc484",
    "/21.f43513dbe5d3b813ae3a.js": "6c1835a87951132273c265a0b9496d6385ea294a",
    "/22.61bd2dc14c0b0318f460.js": "e68489c4e8be4b4eb3c2c989b0aeeefe0a844f82",
    "/23.5a32678711067613a2ba.js": "450fbe82cc2f3cf0aff618373d6de05bc51fa7c7",
    "/24.5050ae1bf5a03668243a.js": "88973e8fcaf936cd55d8721489da6b19a51629d0",
    "/25.a01d9c66da0380e0bc3c.js": "bc0fd31814b8169fe9be725d5952c5097d6e3b5e",
    "/26.e44d4e8c9c5ec58a5fb1.js": "5787b2986c84f72976af0ec23980fc53ad22d2e2",
    "/27.74c473308b094053c2b3.js": "b9309b72dfd2d212bbc40248d88af60057ec92d6",
    "/28.ecf43151d9cbc5d95a60.js": "6c53fdf7685874b27c706c942a8f40f3ded50e95",
    "/29.ec3d24e46111bebdfb6e.js": "8ceda7968a23437409c269a1a994631d95893925",
    "/3.42adaab5359074b4df35.js": "1e69576bb1a14bd2bca073a45af78eff8b6862b0",
    "/30.5bf6f3c00eb9eb9c88a7.js": "ae6eda3d5837ac50074e03a86d6cfc0a707c8c37",
    "/31.2e8bde73b8b8db94e138.js": "b2c6763635b302b00319b603e03e79c365ddba95",
    "/32.0e587d23dffdaac6bfe2.js": "7ca9888d51f7ac10c212ba37b9bb1b24a82bc358",
    "/33.30db17c2df66b0046dbf.js": "71835941b78dc1b63bd3aa862be231eba2f19f28",
    "/34.7803039d7cf4deca682e.js": "3623441f732cb43c3cb643ae5acee40773141002",
    "/35.2b99ef9d6f1b143605d8.js": "07c4e0082bf2da7bc2ed1e99a13f4fc18e89a03c",
    "/36.ca306c91e43f4763e6c2.js": "a907e6cbf3eab94bbc16a6ba58b6e908f6d7bb2a",
    "/37.af5049a03e3ce2a8b21d.js": "76930f06369bc11cecd67494317f07337bbac142",
    "/38.a484fa0a91907b647b6b.js": "3ebede97fa4e7c98b248e34e352e03df228f49ae",
    "/39.d5277fe195753e0b1b77.js": "470f046cf79c10e3dfb32134933c0a4921915f36",
    "/4.2a09798eee7e50cf5445.js": "c91ea8a01f2270d55998d7ca5cfcfd5585f32785",
    "/40.ad55de8c3cc0e627b6a4.js": "64a9e7336f3a53b82e964b26b72c3ebd7e86d17a",
    "/41.4102a0878530782b95b0.js": "b4e5ec92b55907006ddbbcea6a97e7b7a94f158d",
    "/42.f5a4c6de08e204e9c0fc.js": "d5cda8559678712669fd7e61d7b97d966f1c209e",
    "/43.28c63f5de443a5c0adff.js": "f2c894b8855c7b13f0a57cc63985c135f4b3e5ba",
    "/44.603f41ee257607accb9b.js": "c200920295294287cbe281fcb14ee551ef2471cc",
    "/45.9094810e23cc5af74f04.js": "9952ff7a8a69ce1f36fb201d0eba6408af38cdc7",
    "/46.841e2a9e4646f8679d85.js": "b59b06ba79e3b9d2fd8a25a4a2bc09a191e9aa81",
    "/47.c6ea2fa59448592039f8.js": "7036106f3055c3d14b29684ea87568440b6d581c",
    "/48.000b3ce2f255d1650079.js": "1509b847702ab4ba69622dd6ac90001650daed8a",
    "/49.c4fc25ed44663ab1bc6c.js": "090ce623a68f220c32d5fe40dfcd0071b3070c76",
    "/5.0126a8a7f8364483b6dd.js": "1f3590079d9a42f7d68cc3a377c685d0847cdf6d",
    "/50.566b12e0668ab903f591.js": "7e420371cfcd98a9b5e58ed7a0773c0d12a0a596",
    "/51.e19655c9eeb917871c99.js": "920e470d795900a1c38c7c9ad105cdb72ae8b889",
    "/52.75c66dcd2d53a4e76bf3.js": "f48de15894fb3ebdb393a543957076f2880b4fc1",
    "/53.47a808439a95730f3e0d.js": "67b3e86eac63708bf8203ec616ca3cb5a3999143",
    "/54.891c59c8a8f799c8c2f3.js": "6331216887cc51b26ebb87d8b951b468f1050bf1",
    "/55.a0ed7d577c79bc6d8d83.js": "caeda3d8b7c8bc0b537fc45dd2418c359c6f7356",
    "/56.0595e07eda881f661b51.js": "d50bd2300670d1eea017699a46fa6f2703a66968",
    "/57.f5156f67b714d1c58994.js": "2e7c1876d463f8e7cb2255702234575d3c2a4599",
    "/58.915fc5c60db355aa7066.js": "0afd99073b80808e21bb90b10f07081af75064c9",
    "/59.9ddc1d33a4fe2629c429.js": "4626c1ab8a6e20fe2fa5c8a6b0305e04fa7b0ade",
    "/6.30ddd9200a5b4227997d.js": "ff7c2a82669853ef5154c2815a16318683079451",
    "/60.b4815b8f2b026748fd74.js": "4c10190f4b6c7de18cdd205608e30b1455fcbb63",
    "/61.611f9869b519626a270c.js": "9b15b1bc1e4e7a0eaca334fabbc8bce17e52f9b1",
    "/62.fdf0f7285ecdfb02649c.js": "1385ae48b964df38e105898cf1908e12c8a43310",
    "/63.84ac7a5147321955bc17.js": "98754facd0367133d7beca1e146b7550055eb363",
    "/64.5ab8fdeb83c1161ad1ba.js": "6954dd86aa43b1f2a4b5115d0218e0e03a85e5c9",
    "/65.07d3d04eda9f05f0c6dd.js": "33800cef345734021c3de0a3b5bf0f115b6ec281",
    "/66.d27fc2de8777d1280683.js": "4dd07c1b63e82bbd0054eb8cd05d795a0a2f4fbd",
    "/67.a0c3d686fc5c97b300b4.js": "938c0cc134d9daf93ff4ba7ad88278d6cea43cdc",
    "/68.a70122bd1b7b0f5cb07b.js": "476e31cf018286e1adf9b3b92e91828ddeb15763",
    "/69.bcbcd7fa967e33567f05.js": "fe97565babe4bda6f9c22e2b545c9f6c7596706d",
    "/7.d0f53fbb3b26e121745c.js": "5f11bb194362252dff1f3636469acb22738d2688",
    "/70.cb66f23bb1e16511abda.js": "9fecf07c86147f20b5ebd7cb0e9e0fe1344db4e0",
    "/71.a27f6942e5a774b43ed6.js": "cad2064f409e61fa9a0676c8e463c5ca2a94cbe6",
    "/72.1323c0e6aa26062ab889.js": "0d76f270813186ba042c376209404776d72fab3c",
    "/73.9f6e4555d06ad0ae1136.js": "0b51549108bd270ea60dbdec8e213c2e6a746aa7",
    "/74.b7660060069e03eb977f.js": "09dda2f10af4f05bf37d005ffe3e5aa161124a0a",
    "/75.a612dd6f9774d74bc53e.js": "2db39571689d37d8b1721b7e4375b0260eea3ceb",
    "/76.419e4c27338738d29f99.js": "239ee815206985f39888d524115b7bb1a11fad40",
    "/77.2ce710afb436cf0e7e37.js": "9ce3670431097b093e5d7f10f059ef2eceb362a5",
    "/78.4e993ffcf3f453daf63d.js": "663d0bb8f37de12ed17172e24cafc82996225150",
    "/79.45f9a5c45a15008ffd3f.js": "79d00871fde37762cc23e99645d841507bde8bc0",
    "/8.164458d0cab41931e2a0.js": "e9e8b94bc8944cde339ff065d97340a8fe6c1da6",
    "/80.c510e814ac56884a1f78.js": "1bbc960a8753874d38f54a51102b91035521965d",
    "/81.71311117a978c198e726.js": "68fc6b5cf8c5255895b99aeea1374068eb015a17",
    "/82.21f6020715c150791618.js": "e34860468164256ae3663ba930d57d57e320e399",
    "/83.8d513615ecac8a03f560.js": "22376f6d46ae732a07105cb5a3c5a224ad10f95a",
    "/84.c6e80036581764852189.js": "6e6f8fb105490655d038bbd09ba6d62fcaf49c09",
    "/85.6b7b0dfbae808e25ac18.js": "63d7a2063857742d2c4ee7f0293f17a9b751ed9d",
    "/86.3c2eb2eccf47727d022c.js": "969e4505bed4a5234b43b623cadf988994abda03",
    "/87.ad245c52f5c0d88f8905.js": "849b312f22ca6fe6f9b866d2132d7b2632a2a4c8",
    "/88.84dbbbc8ab72ddbde140.js": "a2251dc72a83466a3444b6a1645af8f55bba60f7",
    "/89.c136103b956b5bc0adbc.js": "1076325709259fd8890bf21376073a608b50bf42",
    "/9.d92593cf6703e8de309e.js": "3b6762ccd564cc3baa8b5ff1bceb02665bd8f708",
    "/90.9a59646ff33bf2741639.js": "7152ff8fab6343b3c07f74303ca73e09455a8224",
    "/91.ddf74243149e7f6d8637.js": "2004b528bd796008555b9ed524d63db4c0a32d02",
    "/92.caaa32ace6e5c4ba28d3.js": "3cc7ada1e8d6667e1320a8492ef988958f419363",
    "/93.1f5a283a3b47d70a7076.js": "28fd7a26dac943d5f48a8285874450eb8ec222bf",
    "/94.00534d31e68b462e8d26.js": "1d39776a5dec81a3cea20cce7754904b1dff1d38",
    "/95.67e4d288f14b7a75fd00.js": "3627391eb873c9b9b8e23cedb21a9aa895c2ca7b",
    "/96.1106d2251b86af53bce7.js": "3fb20dfb834fe99adc18b53f5bf42ffc9b031fe1",
    "/97.6f0887be8cfada0a7dfb.js": "f3b25a345e8a2504b83cd2382844dc39b035bf58",
    "/98.4d326e58032aee895d69.js": "98189364e1a6a45a4b02e698707edce813a0d4d8",
    "/99.671808263dcca160068c.js": "5f4c77dfcd2df188839a487df92f2f3d071e990b",
    "/assets/icon/favicon.png": "7798b8e0eb61d7375c245af78bbf5c916932bf13",
    "/assets/icons/icon-128x128.png": "dae3b6ed49bdaf4327b92531d4b5b4a5d30c7532",
    "/assets/icons/icon-144x144.png": "b0bd89982e08f9bd2b642928f5391915b74799a7",
    "/assets/icons/icon-152x152.png": "7479a9477815dfd9668d60f8b3b2fba709b91310",
    "/assets/icons/icon-192x192.png": "1abd80d431a237a853ce38147d8c63752f10933b",
    "/assets/icons/icon-384x384.png": "329749cd6393768d3131ed6304c136b1ca05f2fd",
    "/assets/icons/icon-512x512.png": "559d9c4318b45a1f2b10596bbb4c960fe521dbcc",
    "/assets/icons/icon-72x72.png": "c457e56089a36952cd67156f9996bc4ce54a5ed9",
    "/assets/icons/icon-96x96.png": "3914125a4b445bf111c5627875fc190f560daa41",
    "/assets/shapes.svg": "5413e95adabcb2cb639970051f55e0ddb64ace53",
    "/common.690f890cf5828d03a68a.js": "6e445476dacc663ba0a5913606b42395bee84a25",
    "/cordova.935a9f4e1f7afeca168d.js": "19e6b897e909e6fdd5d0706369a4d305ce3f604a",
    "/cordova.js": "407d592e3172609ad64188238a017bcea829fbe3",
    "/cordova_plugins.js": "a22834e0a5e0486c5e29b35e2b7664b2fbaf2fd5",
    "/index.html": "d7079227a3c449b48534435c595faebe93003447",
    "/main.46f0106f86089cb77e53.js": "de0f37911bb8787db8f93118a2cd26b762794556",
    "/ngsw-worker.js": "f6108694278a4b39b52d4eaee49c415b6c8f5d45",
    "/polyfills.358ac927f0001a849e41.js": "134df6592e96469b96155e6c0e8acd2feebaeec0",
    "/runtime.e188014ade0c880bac8a.js": "bf85d967658efc8a7a765cdabda099e972af1c5e",
    "/safety-worker.js": "ae5c8be3955e38edeeec09ed94b63d1e57f003c9",
    "/styles.e630339482df0fdc5b96.css": "6790de054081142a1047c2342791b4a280d4e5cf",
    "/worker-basic.min.js": "ae5c8be3955e38edeeec09ed94b63d1e57f003c9"
  },
  "navigationUrls": [
    {
      "positive": true,
      "regex": "^\\/.*$"
    },
    {
      "positive": false,
      "regex": "^\\/(?:.+\\/)?[^/]*\\.[^/]*$"
    },
    {
      "positive": false,
      "regex": "^\\/(?:.+\\/)?[^/]*__[^/]*$"
    },
    {
      "positive": false,
      "regex": "^\\/(?:.+\\/)?[^/]*__[^/]*\\/.*$"
    }
  ]
}